^D:\PROJECTS\CHESSENGINE\CHESSENGINE\DEBUG\DOMAIN.OBJ|D:\PROJECTS\CHESSENGINE\CHESSENGINE\DEBUG\GAME.OBJ|D:\PROJECTS\CHESSENGINE\CHESSENGINE\DEBUG\MAIN.OBJ|D:\PROJECTS\CHESSENGINE\CHESSENGINE\DEBUG\REPOSITORY.OBJ|D:\PROJECTS\CHESSENGINE\CHESSENGINE\DEBUG\SERVICE.OBJ|D:\PROJECTS\CHESSENGINE\CHESSENGINE\DEBUG\SQUAREGUI.OBJ|D:\PROJECTS\CHESSENGINE\CHESSENGINE\DEBUG\TABLEMODEL.OBJ|D:\PROJECTS\CHESSENGINE\CHESSENGINE\DEBUG\TEST.OBJ
/OUT:"D:\PROJECTS\CHESSENGINE\DEBUG\CHESSENGINE.EXE" /NOLOGO /LIBPATH:C:\OPENSSLX86\LIB /LIBPATH:"C:\UTILS\MY_SQL\MYSQL-5.7.25-WIN32\LIB" /LIBPATH:C:\UTILS\POSTGRESQLX86\PGSQL\LIB C:\CODING\QT\5.14.2\MSVC2017\LIB\QT5WIDGETSD.LIB C:\CODING\QT\5.14.2\MSVC2017\LIB\QT5GUID.LIB C:\CODING\QT\5.14.2\MSVC2017\LIB\QT5CORED.LIB C:\CODING\QT\5.14.2\MSVC2017\LIB\QTMAIND.LIB SHELL32.LIB KERNEL32.LIB USER32.LIB GDI32.LIB WINSPOOL.LIB COMDLG32.LIB ADVAPI32.LIB SHELL32.LIB OLE32.LIB OLEAUT32.LIB UUID.LIB ODBC32.LIB ODBCCP32.LIB /MANIFEST /MANIFESTUAC:"level='asInvoker' uiAccess='false'" /manifest:embed /DEBUG /PDB:"D:\PROJECTS\CHESSENGINE\DEBUG\CHESSENGINE.PDB" /SUBSYSTEM:WINDOWS /TLBID:1 /DYNAMICBASE /NXCOMPAT /IMPLIB:"D:\PROJECTS\CHESSENGINE\DEBUG\CHESSENGINE.LIB" /MACHINE:X86 /SAFESEH DEBUG\DOMAIN.OBJ
DEBUG\GAME.OBJ
DEBUG\MAIN.OBJ
DEBUG\REPOSITORY.OBJ
DEBUG\SERVICE.OBJ
DEBUG\SQUAREGUI.OBJ
DEBUG\TABLEMODEL.OBJ
DEBUG\TEST.OBJ
