^D:\PROJECTS\CHESSENGINE\CHESSENGINE\RELEASE\DOMAIN.OBJ|D:\PROJECTS\CHESSENGINE\CHESSENGINE\RELEASE\GAME.OBJ|D:\PROJECTS\CHESSENGINE\CHESSENGINE\RELEASE\MAIN.OBJ|D:\PROJECTS\CHESSENGINE\CHESSENGINE\RELEASE\REPOSITORY.OBJ|D:\PROJECTS\CHESSENGINE\CHESSENGINE\RELEASE\SERVICE.OBJ|D:\PROJECTS\CHESSENGINE\CHESSENGINE\RELEASE\SQUAREGUI.OBJ|D:\PROJECTS\CHESSENGINE\CHESSENGINE\RELEASE\TABLEMODEL.OBJ|D:\PROJECTS\CHESSENGINE\CHESSENGINE\RELEASE\TEST.OBJ
C:\CODING\QT\5.14.2\MSVC2017\LIB\QT5WIDGETS.LIB
C:\CODING\QT\5.14.2\MSVC2017\LIB\QT5GUI.LIB
C:\CODING\QT\5.14.2\MSVC2017\LIB\QT5CORE.LIB
C:\CODING\QT\5.14.2\MSVC2017\LIB\QTMAIN.LIB
C:\PROGRAM FILES (X86)\WINDOWS KITS\10\LIB\10.0.18362.0\UM\X86\SHELL32.LIB
C:\PROGRAM FILES (X86)\WINDOWS KITS\10\LIB\10.0.18362.0\UM\X86\KERNEL32.LIB
C:\PROGRAM FILES (X86)\WINDOWS KITS\10\LIB\10.0.18362.0\UM\X86\USER32.LIB
C:\PROGRAM FILES (X86)\WINDOWS KITS\10\LIB\10.0.18362.0\UM\X86\GDI32.LIB
C:\PROGRAM FILES (X86)\WINDOWS KITS\10\LIB\10.0.18362.0\UM\X86\WINSPOOL.LIB
C:\PROGRAM FILES (X86)\WINDOWS KITS\10\LIB\10.0.18362.0\UM\X86\COMDLG32.LIB
C:\PROGRAM FILES (X86)\WINDOWS KITS\10\LIB\10.0.18362.0\UM\X86\ADVAPI32.LIB
C:\PROGRAM FILES (X86)\WINDOWS KITS\10\LIB\10.0.18362.0\UM\X86\OLE32.LIB
C:\PROGRAM FILES (X86)\WINDOWS KITS\10\LIB\10.0.18362.0\UM\X86\OLEAUT32.LIB
C:\PROGRAM FILES (X86)\WINDOWS KITS\10\LIB\10.0.18362.0\UM\X86\UUID.LIB
C:\PROGRAM FILES (X86)\WINDOWS KITS\10\LIB\10.0.18362.0\UM\X86\ODBC32.LIB
C:\PROGRAM FILES (X86)\WINDOWS KITS\10\LIB\10.0.18362.0\UM\X86\ODBCCP32.LIB
D:\PROJECTS\CHESSENGINE\CHESSENGINE\RELEASE\DOMAIN.OBJ
D:\PROJECTS\CHESSENGINE\CHESSENGINE\RELEASE\GAME.OBJ
D:\PROJECTS\CHESSENGINE\CHESSENGINE\RELEASE\MAIN.OBJ
D:\PROJECTS\CHESSENGINE\CHESSENGINE\RELEASE\REPOSITORY.OBJ
D:\PROJECTS\CHESSENGINE\CHESSENGINE\RELEASE\SERVICE.OBJ
D:\PROJECTS\CHESSENGINE\CHESSENGINE\RELEASE\SQUAREGUI.OBJ
D:\PROJECTS\CHESSENGINE\CHESSENGINE\RELEASE\TABLEMODEL.OBJ
D:\PROJECTS\CHESSENGINE\CHESSENGINE\RELEASE\TEST.OBJ
C:\WINDOWS\GLOBALIZATION\SORTING\SORTDEFAULT.NLS
C:\PROGRAM FILES (X86)\MICROSOFT VISUAL STUDIO\2019\COMMUNITY\VC\TOOLS\MSVC\14.26.28801\LIB\X86\MSVCPRT.LIB
C:\PROGRAM FILES (X86)\MICROSOFT VISUAL STUDIO\2019\COMMUNITY\VC\TOOLS\MSVC\14.26.28801\LIB\X86\MSVCRT.LIB
C:\PROGRAM FILES (X86)\MICROSOFT VISUAL STUDIO\2019\COMMUNITY\VC\TOOLS\MSVC\14.26.28801\LIB\X86\OLDNAMES.LIB
C:\PROGRAM FILES (X86)\MICROSOFT VISUAL STUDIO\2019\COMMUNITY\VC\TOOLS\MSVC\14.26.28801\LIB\X86\VCRUNTIME.LIB
C:\PROGRAM FILES (X86)\WINDOWS KITS\10\LIB\10.0.18362.0\UCRT\X86\UCRT.LIB
C:\PROGRAM FILES (X86)\MICROSOFT VISUAL STUDIO\2019\COMMUNITY\VC\TOOLS\MSVC\14.26.28801\BIN\HOSTX86\X86\CVTRES.EXE
C:\WINDOWS\SYSTEM32\TZRES.DLL
